Final Project
…
glimpse(columns)

## Observations: 57
## Variables: 2
## $ ColumnName        <chr> "Address", "League", "Year", "Season", "Type...
## $ ColumnDescription <chr> "website address the data is scraped from \n...

gold

## # A tibble: 99,060 x 97
##    Address     Type  min_1 min_2 min_3 min_4 min_5 min_6 min_7 min_8 min_9
##    <chr>       <chr> <int> <int> <int> <int> <int> <int> <int> <int> <int>
##  1 http://mat~ gold~     0     0   -14  - 65  -268  -431  -488 - 789 - 494
##  2 http://mat~ gold~     0     0   -26  - 18   147   237  -152    18    88
##  3 http://mat~ gold~     0     0    10  - 60    34    37   589  1064  1258
##  4 http://mat~ gold~     0     0   -15    25   228  -  6  -243   175 - 346
##  5 http://mat~ gold~    40    40    44  - 36   113   158  -121 - 191    23
##  6 http://mat~ gold~     0     0    20  - 42  - 48  - 24  -219 - 272 - 319
##  7 http://mat~ gold~     0    13   - 7     6  -353  -215  -795 - 764   369
##  8 http://mat~ gold~     0     0    26    91  -109   264   178    66 -  65
##  9 http://mat~ gold~     0   -10     0   162  -269  - 63   323   225   274
## 10 http://mat~ gold~     0     0     0    68   498   210   283   311   133
## # ... with 99,050 more rows, and 86 more variables: min_10 <int>,
## #   min_11 <int>, min_12 <int>, min_13 <int>, min_14 <int>, min_15 <int>,
## #   min_16 <int>, min_17 <int>, min_18 <int>, min_19 <int>, min_20 <int>,
## #   min_21 <int>, min_22 <int>, min_23 <int>, min_24 <int>, min_25 <int>,
## #   min_26 <int>, min_27 <int>, min_28 <int>, min_29 <int>, min_30 <int>,
## #   min_31 <int>, min_32 <int>, min_33 <int>, min_34 <int>, min_35 <int>,
## #   min_36 <int>, min_37 <int>, min_38 <int>, min_39 <int>, min_40 <int>,
## #   min_41 <int>, min_42 <int>, min_43 <int>, min_44 <int>, min_45 <int>,
## #   min_46 <int>, min_47 <int>, min_48 <int>, min_49 <int>, min_50 <int>,
…
